turtles:₹ formula ((1^2).~0+3).4

postfix   form: P020102X02P0100NZ02P0103Y02P0104Z02
segmented form: P02X02P01NZ02P01Y02P01Z020102000304
total size (B): 11
 _____________
|text|operator|
|----|--------|
| N  |  not   |
|----|--------|
| P  |  push  |
|----|--------|
| R  |  pop   |
|----|--------|
| V  |  copy  |
|----|--------|
| X  |  Xor   |
|----|--------|
| Y  |   or   |
|----|--------|
| Z  |  and   |
|____|________|

segpost code  : P02X02P01NZ02P01Y02P01Z02
 _____________
|text|encoding|
|----|--------|
|P02 |00000010|
|----|--------|
|X02 |01000000|
|----|--------|
|P01 |00000001|
|----|--------|
|N   |00000000|
|----|--------|
|Z02 |11000000|
|----|--------|
|P01 |00000001|
|----|--------|
|Y02 |10000000|
|----|--------|
|P01 |00000001|
|----|--------|
|Z02 |11000000|
|____|________|

access code   : t
code segment  : x02400100b0018001b0
size (bytes)  : 9

segpost data  : 0102000304
 _____________
|text|encoding|
|----|--------|
| 01 |  001   |
|----|--------|
| 02 |  010   |
|----|--------|
| 00 |  000   |
|----|--------|
| 03 |  011   |
|----|--------|
| 04 |  100   |
|____|________|

access data   : t
data segment  : x2838
size(bytes)   : 2
